[
    {
        "competitorId": 0,
        "dataList": [
            {
                "id": 0,
                "date": "2024-3-8 15:45:30",
                "screenShotUrl": "https://miro.medium.com/v2/resize:fit:720/format:webp/1*lqfufQIZld3Ri83BLEOCaw.png"
            },
            {
                "id": 1,
                "date": "2024-3-8 15:45:30",
                "screenShotUrl": "https://miro.medium.com/v2/resize:fit:720/format:webp/1*lqfufQIZld3Ri83BLEOCaw.png"
            },
            {
                "id": 2,
                "date": "2024-3-8 15:45:30",
                "screenShotUrl": "https://miro.medium.com/v2/resize:fit:720/format:webp/1*lqfufQIZld3Ri83BLEOCaw.png"
            },
            {
                "id": 3,
                "date": "2024-3-8 15:45:30",
                "screenShotUrl": "https://miro.medium.com/v2/resize:fit:720/format:webp/1*lqfufQIZld3Ri83BLEOCaw.png"
            },
            {
                "id": 4,
                "date": "2024-3-8 15:45:30",
                "screenShotUrl": "https://miro.medium.com/v2/resize:fit:720/format:webp/1*lqfufQIZld3Ri83BLEOCaw.png"
            }
        ]
    }
]